main.c:113:5:main	168	static
main.c:236:6:SystemClock_Config	216	static
main.c:302:13:MX_DMA2D_Init	8	static
main.c:336:13:MX_I2C3_Init	8	static
main.c:379:13:MX_LTDC_Init	64	static
main.c:438:13:MX_RTC_Init	80	static
main.c:524:13:MX_TIM1_Init	40	static
main.c:568:13:MX_USART1_UART_Init	8	static
main.c:597:13:MX_FMC_Init	40	static
main.c:646:13:MX_GPIO_Init	72	static
main.c:870:6:HAL_UART_RxCpltCallback	24	static
main.c:890:6:Fonction_Raquette	24	static
main.c:935:6:Fonction_Balle	88	static
main.c:1104:6:Fonction_Briques	24	static
main.c:1127:6:Fonction_Dalle	128	static
main.c:1169:6:HAL_TIM_PeriodElapsedCallback	16	static
main.c:1185:6:Error_Handler	4	static,ignoring_inline_asm
